…
    ## [1] 488

``` r
inventory %>% 
  group_by(item_no) %>% 
  summarise(min = min(sold),
            q1 = quantile(sold, 0.25),
            median = median(sold),
            mean = mean(sold),
            q3 = quantile(sold, 0.75),
            max = max(sold)) %>% 
  arrange(mean)
```

    ## # A tibble: 488 × 7
    ##    item_no           min    q1 median  mean    q3   max
    ##    <chr>           <int> <dbl>  <dbl> <dbl> <dbl> <int>
    ##  1 4MBTST-1117         0     0      0  9.26     0   500
    ##  2 4MBTST-2424         0     0      0  9.26     0   500
    ##  3 ACT-2-726           0     0      0  9.26     0   300
    ##  4 AS1324242208        0     0      0  9.26     0   160
    ##  5 AS40010RD04.750     0     0      0  9.26     0   500
    ##  6 AS40010RD04.875     0     0      0  9.26     0   500
    ##  7 BNMO25P3D           0     0      0  9.26     0   100
    ##  8 BPEM200P1SC         0     0      0  9.26     0   500
    ##  9 BPONG5P4P           0     0      0  9.26     0   200
    ## 10 CMPD2020            0     0      0  9.26     0   125
    ## # … with 478 more rows
…
